{
    "columns": [
        {
            "code": "emp_id",                        
            "displayLabel": "Employee Identifier",  
            "dataType": "string",                   
            "validations": [
                {
                    "validationType": "required"  
                }
            ]
        },
        {
            "code": "org_job_title",
            "displayLabel": "Organization Job Title",
            "dataType": "string",
            "validations": [
                {
                    "validationType": "required"
                }
            ]
        },
        {
            "code": "org_reports_to",
            "displayLabel": "Organization Reports To Title",
            "dataType": "string",
            "validations": []   
        },
        {
            "code": "org_job_code",
            "displayLabel": "Organization Job Code",
            "dataType": "string",
            "validations": []
        },
        {
            "code": "org_job_level",
            "displayLabel": "Organization Job Level",
            "dataType": "string",
            "validations": []
        },
        {
            "code": "org_job_id",
            "displayLabel": "Organization Job Identifier",
            "dataType": "string",
            "validations": []
        },
        {
            "code": "hire_year",
            "displayLabel": "Year of Hire",
            "dataType": "int",
            "validations": [
                {
                    "validationType": "required"
                }
            ],
            "transformations": [
                {
                    "tranformationType": "extractYear"  
                }
            ]
        },
        {
            "code": "birth_year",
            "displayLabel": "Year of Birth",
            "dataType": "int",
            "validations": [
                {
                    "validationType": "required"
                }
            ],
            "transformations": [
                {
                    "tranformationType": "extractYear"  
                }
            ]
        },
        {
            "code": "area_dept",
            "displayLabel": "Area / Department",
            "dataType": "string",
            "validations": []
        },
        {
            "code": "geo_scope_of_role",
            "displayLabel": "Geographic Scope of Role",
            "dataType": "double",
            "validations": [
                {
                    "validationType": "oneOf",  
                    "values": [1.0, 1.5, 2.0, 2.5, 3.0]
                }                                
            ]
        },
        {
            "code": "revenue_for_role",
            "displayLabel": "Revenue for business in which role sits",
            "dataType": "double",
            "validations": []
        },
        {
            "code": "state",
            "displayLabel": "State",
            "dataType": "string",
            "validations": []
        },
        {
            "code": "employee_type",
            "displayLabel": "Type of Employee",
            "dataType": "int",
            "validations": [
                {
                    "validationType": "oneOf",   
                    "values": [1, 2]
                }                
            ]
        },
        {
            "code": "gender",
            "displayLabel": "Gender",
            "dataType": "string",
            "validations": [
                {
                    "validationType": "oneOf",   
                    "values": ["M", "F"]
                }
            ]
        },
        {
            "code": "monthly_base_salary",
            "displayLabel": "Monthly Base Salary",
            "dataType": "double",
            "validations": []
        },
        {
            "code": "months_paid",
            "displayLabel": "Number of Months Paid",
            "dataType": "int",
            "validations": []
        },
        {
            "code": "vacation_bonus",
            "displayLabel": "Vacation Bonus",
            "dataType": "double",
            "validations": []
        },
        {
            "code": "other_income",
            "displayLabel": "Other Income",
            "dataType": "double",
            "validations": []
        },
        {
            "code": "other_payments",
            "displayLabel": "Other Payments",
            "dataType": "double",
            "validations": []
        },
        {
            "code": "sti_eligible",
            "displayLabel": "Short-term Incentive Eligibility",
            "dataType": "string",
            "validations": [
                {
                    "validationType": "oneOf",  
                    "values": ["Y", "N"]
                }
            ]
        },
        {
            "code": "sti_target",
            "displayLabel": "Short-term Incentive Target",
            "dataType": "double",
            "validations": []
        },
        {
            "code": "sti_actual",
            "displayLabel": "Short-term Incentive Actual",
            "dataType": "double",
            "validations": []
        }
    ]
}